<svg xmlns="http://www.w3.org/2000/svg" viewBox="0 0 31 24">
  <defs>
    <style>
      .cls-1, .cls-2, .cls-4 {
        fill: none;
      }

      .cls-1, .cls-2 {
        stroke: #fff;
        stroke-linecap: round;
        stroke-width: 2.5px;
      }

      .cls-1 {
        stroke-linejoin: round;
      }

      .cls-3 {
        stroke: none;
      }
    </style>
  </defs>
  <g id="Btn_Overview" transform="translate(-587 -964.165)">
    <g id="Rectangle_4121" data-name="Rectangle 4121" class="cls-1" transform="translate(587 964.165)">
      <rect class="cls-3" width="31" height="24"/>
      <rect class="cls-4" x="1.25" y="1.25" width="28.5" height="21.5"/>
    </g>
    <g id="Group_5410" data-name="Group 5410">
      <path id="Path_2634" data-name="Path 2634" class="cls-2" d="M594.152,970.739v10.781" transform="translate(2)"/>
      <path id="Path_2635" data-name="Path 2635" class="cls-2" d="M594.152,970.739v7.445" transform="translate(8 3.335)"/>
      <path id="Path_2636" data-name="Path 2636" class="cls-2" d="M594.152,970.739v3.723" transform="translate(14 7.058)"/>
    </g>
  </g>
</svg>
