<svg xmlns="http://www.w3.org/2000/svg" viewBox="0 0 30 30">
  <defs>
    <style>
      .cls-1, .cls-2, .cls-4 {
        fill: none;
      }

      .cls-1, .cls-2 {
        stroke: #3b4457;
        stroke-width: 2.5px;
      }

      .cls-2 {
        stroke-linecap: round;
        stroke-linejoin: round;
      }

      .cls-3 {
        stroke: none;
      }
    </style>
  </defs>
  <g id="Icon_Cancel" transform="translate(-122 -660)">
    <g id="Ellipse_320" data-name="Ellipse 320" class="cls-1" transform="translate(122 660)">
      <circle class="cls-3" cx="15" cy="15" r="15"/>
      <circle class="cls-4" cx="15" cy="15" r="13.75"/>
    </g>
    <path id="Path_2669" data-name="Path 2669" class="cls-2" d="M589.684,981.76l4.9-4.9,3.814-3.814" transform="translate(-456.589 -302.163)"/>
    <path id="Path_2716" data-name="Path 2716" class="cls-2" d="M589.684,981.76l4.9-4.9,3.814-3.814" transform="translate(1114.855 81.195) rotate(90)"/>
  </g>
</svg>
