<svg xmlns="http://www.w3.org/2000/svg" viewBox="0 0 729.633 107.272">
  <defs>
    <style>
      .cls-1, .cls-2, .cls-3, .cls-5 {
        fill: none;
      }

      .cls-1, .cls-2, .cls-3 {
        stroke: #fff;
        stroke-width: 3.5px;
      }

      .cls-1, .cls-2 {
        stroke-linecap: round;
      }

      .cls-2 {
        stroke-linejoin: round;
      }

      .cls-4 {
        stroke: none;
      }
    </style>
  </defs>
  <g id="Login_Footer" transform="translate(-19.25 -908.25)">
    <g id="Group_4697" data-name="Group 4697" transform="translate(378.73 926.898)">
      <path id="Path_620" data-name="Path 620" class="cls-1" d="M-131.507,907.829H6.022" transform="translate(131.507 -822.799)"/>
      <g id="Group_1077" data-name="Group 1077" transform="translate(9.634)">
        <g id="Group_1067" data-name="Group 1067">
          <g id="Rectangle_1345" data-name="Rectangle 1345" class="cls-2" transform="translate(32.55)">
            <rect class="cls-4" width="55.082" height="87.045"/>
            <rect class="cls-5" x="1.75" y="1.75" width="51.582" height="83.545"/>
          </g>
          <path id="Path_622" data-name="Path 622" class="cls-2" d="M-182.36,651.352h-32.55V714.4" transform="translate(214.91 -630.359)"/>
          <path id="Path_623" data-name="Path 623" class="cls-2" d="M0,0V63.044H32.55" transform="translate(118.616 84.037) rotate(180)"/>
        </g>
        <path id="Path_633" data-name="Path 633" class="cls-1" d="M115.7,661.737h4.376" transform="translate(-103.856 -626.785)"/>
        <path id="Path_636" data-name="Path 636" class="cls-1" d="M115.7,661.737h4.376" transform="translate(-13.5 -626.785)"/>
        <path id="Path_638" data-name="Path 638" class="cls-1" d="M115.7,661.737h4.376" transform="translate(-67.241 -644.786)"/>
        <path id="Path_642" data-name="Path 642" class="cls-1" d="M115.7,661.737h4.376" transform="translate(-47.81 -644.786)"/>
        <path id="Path_634" data-name="Path 634" class="cls-1" d="M115.7,661.737h4.376" transform="translate(-103.856 -614.735)"/>
        <path id="Path_635" data-name="Path 635" class="cls-1" d="M115.7,661.737h4.376" transform="translate(-13.5 -614.735)"/>
        <path id="Path_637" data-name="Path 637" class="cls-1" d="M115.7,661.737h4.376" transform="translate(-67.241 -632.737)"/>
        <path id="Path_641" data-name="Path 641" class="cls-1" d="M115.7,661.737h4.376" transform="translate(-47.81 -632.737)"/>
        <path id="Path_639" data-name="Path 639" class="cls-1" d="M115.7,661.737h4.376" transform="translate(-67.241 -620.688)"/>
        <path id="Path_640" data-name="Path 640" class="cls-1" d="M115.7,661.737h4.376" transform="translate(-47.81 -620.688)"/>
      </g>
    </g>
    <path id="Path_2053" data-name="Path 2053" class="cls-1" d="M1343,2862.449v-37.263" transform="translate(-793.327 -1848.677)"/>
    <path id="Path_2054" data-name="Path 2054" class="cls-1" d="M1343,2845.83v-20.643" transform="translate(-760.359 -1832.058)"/>
    <path id="Path_2055" data-name="Path 2055" class="cls-1" d="M1353.564,2839l-10.339,8.864" transform="translate(-793.343 -1848.292)"/>
    <path id="Path_2056" data-name="Path 2056" class="cls-1" d="M1351.271,2834.857l-8.045,8.045" transform="translate(-760.394 -1834.953)"/>
    <path id="Path_2057" data-name="Path 2057" class="cls-1" d="M8.764,0,0,8.764" transform="translate(540.167 991.227) rotate(-90)"/>
    <g id="Group_4698" data-name="Group 4698" transform="translate(65.493 959.014)">
      <g id="Group_3267" data-name="Group 3267" transform="translate(0 0)">
        <path id="Path_624" data-name="Path 624" class="cls-2" d="M119.978,666.789l29.954-23.61,29.954,23.61" transform="translate(-119.978 -643.179)"/>
        <rect id="Rectangle_2939" data-name="Rectangle 2939" class="cls-2" width="17.942" height="24.963" transform="translate(21.004 28.568)"/>
        <path id="Path_2326" data-name="Path 2326" class="cls-2" d="M172.626,659.432v38.833h37.462V659.432" transform="translate(-161.653 -644.148)"/>
      </g>
    </g>
    <g id="Group_4699" data-name="Group 4699" transform="translate(601.423 910)">
      <path id="Path_632" data-name="Path 632" class="cls-2" d="M305.2,660.227h74.156V725.7" transform="translate(-254.171 -622.733)"/>
      <rect id="Rectangle_1354" data-name="Rectangle 1354" class="cls-2" width="47.191" height="8.58" transform="translate(65.616 79.908)"/>
      <rect id="Rectangle_1355" data-name="Rectangle 1355" class="cls-2" width="47.191" height="8.58" transform="translate(65.616 60.602)"/>
      <path id="Subtraction_3" data-name="Subtraction 3" class="cls-2" d="M-1469.781-20.125h-29.387l4.26-80.741h20.868l4.261,80.741Zm-4.712-89.321h-19.963l.708-13.412h18.547l.708,13.411Z" transform="translate(1524.139 122.857)"/>
      <path id="Path_2325" data-name="Path 2325" class="cls-2" d="M0,0H35.123V8.58H0Z" transform="translate(22.716 13.412)"/>
      <g id="Group_5029" data-name="Group 5029" transform="translate(0 103.137)">
        <path id="Path_620-2" data-name="Path 620" class="cls-1" d="M-131.507,907.829H14.2" transform="translate(131.507 -907.829)"/>
      </g>
    </g>
    <g id="Group_4700" data-name="Group 4700" transform="translate(314.565 944.585)">
      <path id="Path_2040" data-name="Path 2040" class="cls-1" d="M1343.655,2857.125v-31.939" transform="translate(-1327.864 -2789.282)"/>
      <path id="Path_2038" data-name="Path 2038" class="cls-1" d="M1348.813,2834.857l-5.587,5.587" transform="translate(-1326.393 -2788.934)"/>
      <path id="Path_2039" data-name="Path 2039" class="cls-1" d="M5.05,0,0,5.05" transform="translate(10.309 58.689) rotate(-90)"/>
      <path id="Path_2037" data-name="Path 2037" class="cls-2" d="M1547.345,2843.022l15.79-35.073,15.79,35.073Z" transform="translate(-1547.345 -2807.948)"/>
    </g>
    <path id="Path_2058" data-name="Path 2058" class="cls-1" d="M-131.507,907.829h37.716" transform="translate(448.507 105.019)"/>
    <path id="Path_2059" data-name="Path 2059" class="cls-1" d="M-131.507,907.829h37.716" transform="translate(152.507 105.019)"/>
    <g id="Group_4701" data-name="Group 4701" transform="translate(122.338 959.014)">
      <path id="Path_620-3" data-name="Path 620" class="cls-1" d="M-131.507,907.829H35.171" transform="translate(131.507 -853.697)"/>
      <path id="Path_624-2" data-name="Path 624" class="cls-2" d="M119.978,661.05l31.953-17.871,31.953,17.871" transform="translate(-93.641 -643.179)"/>
      <g id="Rectangle_1352" data-name="Rectangle 1352" class="cls-2" transform="translate(53.437 27.122)">
        <rect class="cls-4" width="20.302" height="28.423"/>
        <rect class="cls-5" x="1.75" y="1.75" width="16.802" height="24.923"/>
      </g>
      <path id="Path_627" data-name="Path 627" class="cls-1" d="M183.93,698.208v-16.66" transform="translate(-81.642 -644.101)"/>
      <path id="Path_629" data-name="Path 629" class="cls-1" d="M183.93,698.208v-16.66" transform="translate(-169.715 -644.101)"/>
      <path id="Path_628" data-name="Path 628" class="cls-2" d="M0,0H25.336l4.826,10.858H0Z" transform="translate(78.243 26.589)"/>
      <path id="Path_630" data-name="Path 630" class="cls-2" d="M4.826,0H30.162V10.858H0Z" transform="translate(7.756 26.589)"/>
      <path id="Path_2322" data-name="Path 2322" class="cls-2" d="M172.626,659.432v42.5h39.961v-42.5" transform="translate(-134.584 -647.82)"/>
    </g>
    <g id="Ellipse_295" data-name="Ellipse 295" class="cls-3" transform="translate(532.054 942.237)">
      <ellipse class="cls-4" cx="17.619" cy="17.619" rx="17.619" ry="17.619"/>
      <ellipse class="cls-5" cx="17.619" cy="17.619" rx="15.869" ry="15.869"/>
    </g>
    <g id="Ellipse_296" data-name="Ellipse 296" class="cls-3" transform="translate(566.508 961.192)">
      <ellipse class="cls-4" cx="16.132" cy="16.132" rx="16.132" ry="16.132"/>
      <ellipse class="cls-5" cx="16.132" cy="16.132" rx="14.382" ry="14.382"/>
    </g>
  </g>
</svg>
