<svg xmlns="http://www.w3.org/2000/svg" viewBox="0 0 55.806 40.845">
  <defs>
    <style>
      .cls-1, .cls-2, .cls-3, .cls-5 {
        fill: none;
      }

      .cls-1, .cls-2, .cls-3 {
        stroke: #fff;
        stroke-width: 3px;
      }

      .cls-1, .cls-3 {
        stroke-linecap: round;
      }

      .cls-1 {
        stroke-linejoin: round;
      }

      .cls-4 {
        stroke: none;
      }
    </style>
  </defs>
  <g id="Menu_Credit" transform="translate(-153.059 -548.41)">
    <g id="Group_5520" data-name="Group 5520" transform="translate(-3 -63)">
      <path id="Subtraction_4" data-name="Subtraction 4" class="cls-1" d="M8.77,35.349a3.5,3.5,0,0,1-3.378-2.6L.315,13.808A3.5,3.5,0,0,1,2.79,9.521L37.148.314a3.5,3.5,0,0,1,4.287,2.475L43.849,11.8H13.79a3,3,0,0,0-3,3V34.931l-1.111.3A3.511,3.511,0,0,1,8.77,35.349Z" transform="translate(157.376 612.715)"/>
    </g>
    <g id="Group_5521" data-name="Group 5521" transform="translate(164.037 560.383)">
      <g id="Rectangle_2938" data-name="Rectangle 2938" class="cls-1" transform="translate(0 0)">
        <rect class="cls-4" width="44.828" height="28.872" rx="3"/>
        <rect class="cls-5" x="1.5" y="1.5" width="41.828" height="25.872" rx="1.5"/>
      </g>
      <path id="Path_678" data-name="Path 678" class="cls-2" d="M189.788,535.257h43.506" transform="translate(-188.822 -527.024)"/>
      <path id="Path_679" data-name="Path 679" class="cls-3" d="M189.788,535.257h8.121" transform="translate(-159.858 -515.476)"/>
    </g>
  </g>
</svg>
