<svg xmlns="http://www.w3.org/2000/svg" viewBox="0 0 16.001 15.389">
  <defs>
    <style>
      .cls-1, .cls-2 {
        fill: none;
        stroke: #383838;
        stroke-linecap: round;
        stroke-width: 1.5px;
      }

      .cls-1 {
        stroke-linejoin: round;
      }

      .cls-3 {
        fill: #383838;
      }
    </style>
  </defs>
  <g id="Overview_Month" transform="translate(-712.839 -622.254)">
    <g id="Group_233" data-name="Group 233" transform="translate(713.589 623.004)">
      <g id="Group_118" data-name="Group 118" transform="translate(0 0)">
        <rect id="Rectangle_279" data-name="Rectangle 279" class="cls-1" width="14.501" height="12.704" rx="2" transform="translate(0 1.185)"/>
        <g id="Group_2003" data-name="Group 2003" transform="translate(2.668)">
          <path id="Path_77" data-name="Path 77" class="cls-2" d="M21.193,558.233v2.382" transform="translate(-21.193 -558.233)"/>
          <path id="Path_78" data-name="Path 78" class="cls-2" d="M21.193,558.233v2.382" transform="translate(-11.876 -558.233)"/>
        </g>
      </g>
      <rect id="Rectangle_284" data-name="Rectangle 284" class="cls-3" width="2.099" height="2.099" rx="1.05" transform="translate(2.602 9.113)"/>
      <rect id="Rectangle_281" data-name="Rectangle 281" class="cls-3" width="2.099" height="2.099" rx="1.05" transform="translate(6.228 5.488)"/>
      <rect id="Rectangle_285" data-name="Rectangle 285" class="cls-3" width="2.099" height="2.099" rx="1.05" transform="translate(6.228 9.113)"/>
      <rect id="Rectangle_282" data-name="Rectangle 282" class="cls-3" width="2.099" height="2.099" rx="1.05" transform="translate(9.853 5.488)"/>
      <rect id="Rectangle_283" data-name="Rectangle 283" class="cls-3" width="2.099" height="2.099" rx="1.05" transform="translate(9.853 9.113)"/>
    </g>
  </g>
</svg>
