<svg xmlns="http://www.w3.org/2000/svg" viewBox="0 0 56 56">
  <defs>
    <style>
      .cls-1, .cls-2, .cls-3, .cls-5 {
        fill: none;
      }

      .cls-1, .cls-2, .cls-3 {
        stroke: #0e57a5;
      }

      .cls-1 {
        stroke-width: 2px;
      }

      .cls-2, .cls-3 {
        stroke-linecap: round;
        stroke-width: 1.5px;
      }

      .cls-2 {
        stroke-linejoin: round;
      }

      .cls-4 {
        stroke: none;
      }
    </style>
  </defs>
  <g id="Status_03Delivery" transform="translate(-37 -436)">
    <g id="Group_5385" data-name="Group 5385" transform="translate(0 -351)">
      <g id="Ellipse_318" data-name="Ellipse 318" class="cls-1" transform="translate(37 787)">
        <circle class="cls-4" cx="28" cy="28" r="28"/>
        <circle class="cls-5" cx="28" cy="28" r="27"/>
      </g>
    </g>
    <g id="Group_5471" data-name="Group 5471" transform="translate(-200.845 -400.76)">
      <g id="Group_5442" data-name="Group 5442" transform="translate(256.239 854.682)">
        <g id="Group_5378" data-name="Group 5378" transform="translate(0.821 1.84)">
          <g id="Rectangle_1030" data-name="Rectangle 1030" class="cls-2" transform="translate(16.258)">
            <rect class="cls-4" width="9.527" height="10.001" rx="1"/>
            <rect class="cls-5" x="0.75" y="0.75" width="8.027" height="8.501" rx="0.25"/>
          </g>
          <g id="Ellipse_39" data-name="Ellipse 39" class="cls-2" transform="translate(15.163 12.681)">
            <circle class="cls-4" cx="3.336" cy="3.336" r="3.336"/>
            <circle class="cls-5" cx="3.336" cy="3.336" r="2.586"/>
          </g>
          <g id="Ellipse_40" data-name="Ellipse 40" class="cls-2" transform="translate(2.915 12.681)">
            <circle class="cls-4" cx="3.336" cy="3.336" r="3.336"/>
            <circle class="cls-5" cx="3.336" cy="3.336" r="2.586"/>
          </g>
          <path id="Path_487" data-name="Path 487" class="cls-2" d="M218.034,330.784v3.706h-2.661" transform="translate(-193.818 -318.473)"/>
          <path id="Path_488" data-name="Path 488" class="cls-3" d="M196.479,336.772h-6.492" transform="translate(-180.917 -320.755)"/>
          <path id="Path_2688" data-name="Path 2688" class="cls-3" d="M1.634,14H-1.989" transform="translate(1.989 2.015)"/>
        </g>
        <g id="Group_5379" data-name="Group 5379" transform="translate(0 0)">
          <g id="Rectangle_4111" data-name="Rectangle 4111" class="cls-2">
            <rect class="cls-4" width="15.142" height="12.813"/>
            <rect class="cls-5" x="0.75" y="0.75" width="13.642" height="11.313"/>
          </g>
        </g>
      </g>
      <path id="Path_2670" data-name="Path 2670" class="cls-3" d="M6122.626-2929.824h3.871" transform="translate(-5873.028 3797.459)"/>
      <path id="Path_2671" data-name="Path 2671" class="cls-3" d="M6122.626-2929.824h1.591" transform="translate(-5871.093 3792.677)"/>
      <path id="Path_2672" data-name="Path 2672" class="cls-3" d="M6122.626-2929.824h6.522" transform="translate(-5875.282 3802.24)"/>
    </g>
  </g>
</svg>
